[gd_scene load_steps=2 format=2]

[ext_resource path="res://src/UI/Editor/Utils/Components/slider_component.gd" type="Script" id=2]

[node name="SliderComponent" type="MarginContainer"]
margin_right = 170.0
margin_bottom = 40.0
rect_min_size = Vector2( 0, 30 )
size_flags_horizontal = 3
custom_constants/margin_right = 3
custom_constants/margin_top = 3
custom_constants/margin_left = 3
custom_constants/margin_bottom = 3
script = ExtResource( 2 )
__meta__ = {
"_edit_use_anchors_": false
}
text = "Text"
editable_slider = true
min_value = 0.0
max_value = 100.0
step = 1.0
rounded = false
visible_text = true

[node name="HContainer" type="HBoxContainer" parent="."]
margin_left = 3.0
margin_top = 3.0
margin_right = 167.0
margin_bottom = 37.0
custom_constants/separation = 0

[node name="Text" type="Label" parent="HContainer"]
margin_right = 82.0
margin_bottom = 34.0
size_flags_horizontal = 3
size_flags_vertical = 3
text = "Text"

[node name="VContainer" type="VBoxContainer" parent="HContainer"]
margin_left = 82.0
margin_right = 164.0
margin_bottom = 34.0
size_flags_horizontal = 3
size_flags_vertical = 3
custom_constants/separation = -6

[node name="Input" type="LineEdit" parent="HContainer/VContainer"]
margin_right = 82.0
margin_bottom = 24.0
size_flags_horizontal = 3
text = "0"

[node name="Slider" type="HSlider" parent="HContainer/VContainer"]
margin_top = 18.0
margin_right = 82.0
margin_bottom = 34.0
scrollable = false

[connection signal="mouse_exited" from="." to="." method="_on_slider_focus_exited"]
[connection signal="text_changed" from="HContainer/VContainer/Input" to="." method="_on_input_text_changed"]
[connection signal="text_entered" from="HContainer/VContainer/Input" to="." method="_on_input_text_entered"]
[connection signal="focus_exited" from="HContainer/VContainer/Slider" to="." method="_on_slider_focus_exited"]
[connection signal="gui_input" from="HContainer/VContainer/Slider" to="." method="_on_slider_gui_input"]
[connection signal="value_changed" from="HContainer/VContainer/Slider" to="." method="_on_slider_value_changed"]
