[gd_resource type="StyleBoxFlat" format=2]

[resource]
bg_color = Color( 0.498039, 0.498039, 0.498039, 1 )
corner_radius_top_left = 5
corner_radius_top_right = 5
corner_radius_bottom_right = 5
corner_radius_bottom_left = 5
