; Engine configuration file.
; It's best edited using the editor UI and not directly,
; since the parameters that go here are not all obvious.
;
; Format:
;   [section] ; section goes between []
;   param=value ; assign values to parameters

config_version=4

_global_script_classes=[ {
"base": "Npc",
"class": "Activatable",
"language": "GDScript",
"path": "res://src/Entities/Npcs/activatable.gd"
}, {
"base": "NpcInfo",
"class": "ActivatableInfo",
"language": "GDScript",
"path": "res://src/Core/DataInfo/activatable_info.gd"
}, {
"base": "Property",
"class": "AnimationFramesProperty",
"language": "GDScript",
"path": "res://src/UI/Properties/animation_frames_property.gd"
}, {
"base": "Property",
"class": "AnimationProperty",
"language": "GDScript",
"path": "res://src/UI/Properties/animation_property.gd"
}, {
"base": "Reference",
"class": "AnimatorExecuter",
"language": "GDScript",
"path": "res://src/Autoloads/animator_executer.gd"
}, {
"base": "Reference",
"class": "Appender",
"language": "GDScript",
"path": "res://addons/gs_logger/appender.gd"
}, {
"base": "Reference",
"class": "Arrays",
"language": "GDScript",
"path": "res://src/Tools/Extensions/Classes/arrays.gd"
}, {
"base": "Line2D",
"class": "Arrow",
"language": "GDScript",
"path": "res://src/UI/Properties/Utils/arrow.gd"
}, {
"base": "TextureRect",
"class": "Background",
"language": "GDScript",
"path": "res://src/UI/Editor/LevelContainer/background.gd"
}, {
"base": "BaseScript",
"class": "BaseAction",
"language": "GDScript",
"path": "res://src/Core/Scripting/base_action.gd"
}, {
"base": "BaseScript",
"class": "BaseBehaviour",
"language": "GDScript",
"path": "res://src/Core/Scripting/base_behaviour.gd"
}, {
"base": "BaseScript",
"class": "BaseDefinition",
"language": "GDScript",
"path": "res://src/Core/Scripting/base_definition.gd"
}, {
"base": "BaseScript",
"class": "BaseEvent",
"language": "GDScript",
"path": "res://src/Core/Scripting/base_event.gd"
}, {
"base": "ReferenceRect",
"class": "BaseHUD",
"language": "GDScript",
"path": "res://src/Core/Scripting/base_hud.gd"
}, {
"base": "BaseScript",
"class": "BasePhysicConstant",
"language": "GDScript",
"path": "res://src/Core/Scripting/base_physic_constant.gd"
}, {
"base": "Reference",
"class": "BaseScript",
"language": "GDScript",
"path": "res://src/Core/Scripting/base_script.gd"
}, {
"base": "StaticBody2D",
"class": "Block",
"language": "GDScript",
"path": "res://src/Blocks/block.gd"
}, {
"base": "StaticBody2D",
"class": "BlockDead",
"language": "GDScript",
"path": "res://src/Blocks/block_dead.gd"
}, {
"base": "DataInfo",
"class": "BlockInfo",
"language": "GDScript",
"path": "res://src/Core/DataInfo/block_info.gd"
}, {
"base": "BlockInfo",
"class": "BlockRewardInfo",
"language": "GDScript",
"path": "res://src/Core/DataInfo/block_reward_info.gd"
}, {
"base": "Entity",
"class": "Character",
"language": "GDScript",
"path": "res://src/Entities/Characters/character.gd"
}, {
"base": "MarginContainer",
"class": "CheckComponent",
"language": "GDScript",
"path": "res://src/UI/Editor/Utils/Components/check_component.gd"
}, {
"base": "HBoxContainer",
"class": "CodeCompletion",
"language": "GDScript",
"path": "res://src/UI/Editor/Utils/code_completion.gd"
}, {
"base": "HBoxContainer",
"class": "CoinSection",
"language": "GDScript",
"path": "res://src/UI/HUD/coin_section.gd"
}, {
"base": "Property",
"class": "CollisionProperty",
"language": "GDScript",
"path": "res://src/UI/Properties/collision_property.gd"
}, {
"base": "Appender",
"class": "ConsoleAppender",
"language": "GDScript",
"path": "res://addons/gs_logger/appenders/console_appender.gd"
}, {
"base": "Reference",
"class": "DataFrame",
"language": "GDScript",
"path": "res://src/UI/Properties/Utils/data_frame.gd"
}, {
"base": "JSONObject",
"class": "DataInfo",
"language": "GDScript",
"path": "res://src/Core/DataInfo/data_info.gd"
}, {
"base": "State",
"class": "DefaultState",
"language": "GDScript",
"path": "res://src/Core/StateMachine/default_state.gd"
}, {
"base": "Property",
"class": "DetectorProperty",
"language": "GDScript",
"path": "res://src/UI/Properties/detector_property.gd"
}, {
"base": "Control",
"class": "EditorScripting",
"language": "GDScript",
"path": "res://src/UI/Editor/editor_scripting.gd"
}, {
"base": "Reference",
"class": "EffectsExecuter",
"language": "GDScript",
"path": "res://src/Autoloads/effects_executer.gd"
}, {
"base": "Npc",
"class": "Enemy",
"language": "GDScript",
"path": "res://src/Entities/Npcs/enemy.gd"
}, {
"base": "NpcInfo",
"class": "EnemyInfo",
"language": "GDScript",
"path": "res://src/Core/DataInfo/enemy_info.gd"
}, {
"base": "KinematicBody2D",
"class": "Entity",
"language": "GDScript",
"path": "res://src/Entities/entity.gd"
}, {
"base": "Reference",
"class": "EntityExt",
"language": "GDScript",
"path": "res://src/Tools/Extensions/entity_ext.gd"
}, {
"base": "Reference",
"class": "Enums",
"language": "GDScript",
"path": "res://src/Autoloads/enums.gd"
}, {
"base": "BaseScript",
"class": "EventAllList",
"language": "GDScript",
"path": "res://src/Autoloads/Utils/event_all_list.gd"
}, {
"base": "",
"class": "FLMusicLib",
"language": "NativeScript",
"path": "res://addons/FLMusicLib/FLMusic.gdns"
}, {
"base": "MarginContainer",
"class": "FieldComponent",
"language": "GDScript",
"path": "res://src/UI/Editor/Utils/Components/field_component.gd"
}, {
"base": "FieldComponent",
"class": "FieldNumberComponent",
"language": "GDScript",
"path": "res://src/UI/Editor/Utils/Components/field_number_component.gd"
}, {
"base": "Appender",
"class": "FileAppender",
"language": "GDScript",
"path": "res://addons/gs_logger/appenders/file_appender.gd"
}, {
"base": "WindowDialog",
"class": "FileSelectDialog",
"language": "GDScript",
"path": "res://src/UI/Editor/file_select_dialog.gd"
}, {
"base": "VBoxContainer",
"class": "FileViewer",
"language": "GDScript",
"path": "res://src/UI/Editor/file_viewer.gd"
}, {
"base": "VBoxContainer",
"class": "FrameSection",
"language": "GDScript",
"path": "res://src/UI/Properties/Utils/frame_section.gd"
}, {
"base": "FuncRef",
"class": "FuncRefExt",
"language": "GDScript",
"path": "res://src/Tools/Extensions/funcref_ext.gd"
}, {
"base": "Node",
"class": "GutTest",
"language": "GDScript",
"path": "res://addons/gut/test.gd"
}, {
"base": "HtmlLayout",
"class": "HtmlExtendsLayout",
"language": "GDScript",
"path": "res://addons/gs_logger/layouts/html_extends_layout.gd"
}, {
"base": "Layout",
"class": "HtmlLayout",
"language": "GDScript",
"path": "res://addons/gs_logger/layouts/html_layout.gd"
}, {
"base": "Object",
"class": "InputManagement",
"language": "GDScript",
"path": "res://src/Core/input_management.gd"
}, {
"base": "Reference",
"class": "Instanceator",
"language": "GDScript",
"path": "res://src/Tools/Extensions/Classes/instanceator.gd"
}, {
"base": "Panel",
"class": "ItemSlotSection",
"language": "GDScript",
"path": "res://src/UI/HUD/item_slot_section.gd"
}, {
"base": "Reference",
"class": "JSONConvert",
"language": "GDScript",
"path": "res://src/Tools/JSON/json_convert.gd"
}, {
"base": "Reference",
"class": "JSONObject",
"language": "GDScript",
"path": "res://src/Tools/JSON/json_object.gd"
}, {
"base": "Reference",
"class": "Keyword",
"language": "GDScript",
"path": "res://src/Autoloads/Utils/keyword.gd"
}, {
"base": "Reference",
"class": "Layout",
"language": "GDScript",
"path": "res://addons/gs_logger/layout.gd"
}, {
"base": "Container",
"class": "LevelContainerData",
"language": "GDScript",
"path": "res://src/UI/Editor/LevelContainer/data.gd"
}, {
"base": "JSONObject",
"class": "LevelData",
"language": "GDScript",
"path": "res://src/Autoloads/Utils/level_data.gd"
}, {
"base": "Control",
"class": "LevelEditor",
"language": "GDScript",
"path": "res://src/UI/level_editor.gd"
}, {
"base": "Node2D",
"class": "LevelRoot",
"language": "GDScript",
"path": "res://src/Levels/level_root.gd"
}, {
"base": "HBoxContainer",
"class": "LifeSection",
"language": "GDScript",
"path": "res://src/UI/HUD/life_section.gd"
}, {
"base": "Reference",
"class": "Maths",
"language": "GDScript",
"path": "res://src/Tools/Extensions/Classes/maths.gd"
}, {
"base": "Reference",
"class": "Message",
"language": "GDScript",
"path": "res://addons/gs_logger/message.gd"
}, {
"base": "VBoxContainer",
"class": "NameBehaviour",
"language": "GDScript",
"path": "res://src/UI/Editor/name_behaviour.gd"
}, {
"base": "Reference",
"class": "NodeExt",
"language": "GDScript",
"path": "res://src/Tools/Extensions/node.gd"
}, {
"base": "Entity",
"class": "Npc",
"language": "GDScript",
"path": "res://src/Entities/Npcs/npc.gd"
}, {
"base": "DataInfo",
"class": "NpcInfo",
"language": "GDScript",
"path": "res://src/Core/DataInfo/npc_info.gd"
}, {
"base": "Reference",
"class": "ObjectDB",
"language": "GDScript",
"path": "res://src/Autoloads/Utils/object_db.gd"
}, {
"base": "NpcInfo",
"class": "ObjectInfo",
"language": "GDScript",
"path": "res://src/Core/DataInfo/object_info.gd"
}, {
"base": "Npc",
"class": "ObjectNpc",
"language": "GDScript",
"path": "res://src/Entities/Npcs/object_npc.gd"
}, {
"base": "Reference",
"class": "OptionButtonExt",
"language": "GDScript",
"path": "res://src/Tools/Extensions/option_button.gd"
}, {
"base": "MarginContainer",
"class": "OptionComponent",
"language": "GDScript",
"path": "res://src/UI/Editor/Utils/Components/option_component.gd"
}, {
"base": "Button",
"class": "PanelButton",
"language": "GDScript",
"path": "res://src/UI/panel_button.gd"
}, {
"base": "CPUParticles2D",
"class": "Particle",
"language": "GDScript",
"path": "res://src/Autoloads/Utils/particle.gd"
}, {
"base": "BaseScript",
"class": "PathList",
"language": "GDScript",
"path": "res://src/Autoloads/path_list.gd"
}, {
"base": "Layout",
"class": "PatternLayout",
"language": "GDScript",
"path": "res://addons/gs_logger/layouts/pattern_layout.gd"
}, {
"base": "Character",
"class": "Player",
"language": "GDScript",
"path": "res://src/Entities/Characters/Players/player.gd"
}, {
"base": "DataInfo",
"class": "PlayerInfo",
"language": "GDScript",
"path": "res://src/Core/DataInfo/player_info.gd"
}, {
"base": "Npc",
"class": "Powerup",
"language": "GDScript",
"path": "res://src/Entities/Npcs/powerup.gd"
}, {
"base": "NpcInfo",
"class": "PowerupInfo",
"language": "GDScript",
"path": "res://src/Core/DataInfo/powerup_info.gd"
}, {
"base": "Panel",
"class": "PreviewImage",
"language": "GDScript",
"path": "res://src/UI/Editor/preview_image.gd"
}, {
"base": "Panel",
"class": "PreviewerList",
"language": "GDScript",
"path": "res://src/UI/Editor/previewer_list.gd"
}, {
"base": "Panel",
"class": "PreviewerSingle",
"language": "GDScript",
"path": "res://src/UI/Editor/previewer_single.gd"
}, {
"base": "KinematicBody2D",
"class": "Projectile",
"language": "GDScript",
"path": "res://src/Entities/projectile.gd"
}, {
"base": "DataInfo",
"class": "ProjectileInfo",
"language": "GDScript",
"path": "res://src/Core/DataInfo/projectile_info.gd"
}, {
"base": "Panel",
"class": "Property",
"language": "GDScript",
"path": "res://src/UI/Properties/property.gd"
}, {
"base": "Reference",
"class": "PropertyInfo",
"language": "GDScript",
"path": "res://src/Tools/property_info.gd"
}, {
"base": "VBoxContainer",
"class": "PropertyPicker",
"language": "GDScript",
"path": "res://src/UI/Editor/property_picker.gd"
}, {
"base": "Control",
"class": "ResizePanel",
"language": "GDScript",
"path": "res://src/UI/Editor/LevelContainer/resize_panel.gd"
}, {
"base": "JSONObject",
"class": "RewardInfo",
"language": "GDScript",
"path": "res://src/Core/DataInfo/reward_info.gd"
}, {
"base": "Label",
"class": "ScoreSection",
"language": "GDScript",
"path": "res://src/UI/HUD/score_section.gd"
}, {
"base": "Property",
"class": "SizeProperty",
"language": "GDScript",
"path": "res://src/UI/Properties/size_property.gd"
}, {
"base": "MarginContainer",
"class": "SliderComponent",
"language": "GDScript",
"path": "res://src/UI/Editor/Utils/Components/slider_component.gd"
}, {
"base": "Reference",
"class": "SpriteFramesExt",
"language": "GDScript",
"path": "res://src/Tools/Extensions/sprite_frames.gd"
}, {
"base": "BaseScript",
"class": "State",
"language": "GDScript",
"path": "res://src/Core/StateMachine/state.gd"
}, {
"base": "Node",
"class": "StateMachineCore",
"language": "GDScript",
"path": "res://src/Core/StateMachine/state_machine_core.gd"
}, {
"base": "State",
"class": "StatePhysic",
"language": "GDScript",
"path": "res://src/Core/Scripting/state_physic.gd"
}, {
"base": "Reference",
"class": "StopWatch",
"language": "GDScript",
"path": "res://src/Tools/stop_watch.gd"
}, {
"base": "HBoxContainer",
"class": "TimeSection",
"language": "GDScript",
"path": "res://src/UI/HUD/time_section.gd"
}, {
"base": "Reference",
"class": "UUID",
"language": "GDScript",
"path": "res://src/Tools/uuid.gd"
}, {
"base": "Reference",
"class": "Utility",
"language": "GDScript",
"path": "res://src/Tools/utility.gd"
}, {
"base": "Reference",
"class": "Utils",
"language": "GDScript",
"path": "res://addons/gs_logger/utils.gd"
}, {
"base": "MarginContainer",
"class": "Vector2Component",
"language": "GDScript",
"path": "res://src/UI/Editor/Utils/Components/vector2_component.gd"
}, {
"base": "JSONObject",
"class": "Version",
"language": "GDScript",
"path": "res://src/Tools/version.gd"
} ]
_global_script_class_icons={
"Activatable": "",
"ActivatableInfo": "",
"AnimationFramesProperty": "",
"AnimationProperty": "",
"AnimatorExecuter": "",
"Appender": "",
"Arrays": "",
"Arrow": "",
"Background": "",
"BaseAction": "",
"BaseBehaviour": "",
"BaseDefinition": "",
"BaseEvent": "",
"BaseHUD": "",
"BasePhysicConstant": "",
"BaseScript": "",
"Block": "",
"BlockDead": "",
"BlockInfo": "",
"BlockRewardInfo": "",
"Character": "",
"CheckComponent": "",
"CodeCompletion": "",
"CoinSection": "",
"CollisionProperty": "",
"ConsoleAppender": "",
"DataFrame": "",
"DataInfo": "",
"DefaultState": "",
"DetectorProperty": "",
"EditorScripting": "",
"EffectsExecuter": "",
"Enemy": "",
"EnemyInfo": "",
"Entity": "",
"EntityExt": "",
"Enums": "",
"EventAllList": "",
"FLMusicLib": "",
"FieldComponent": "",
"FieldNumberComponent": "",
"FileAppender": "",
"FileSelectDialog": "",
"FileViewer": "",
"FrameSection": "",
"FuncRefExt": "",
"GutTest": "",
"HtmlExtendsLayout": "",
"HtmlLayout": "",
"InputManagement": "",
"Instanceator": "",
"ItemSlotSection": "",
"JSONConvert": "",
"JSONObject": "",
"Keyword": "",
"Layout": "",
"LevelContainerData": "",
"LevelData": "",
"LevelEditor": "",
"LevelRoot": "",
"LifeSection": "",
"Maths": "",
"Message": "",
"NameBehaviour": "",
"NodeExt": "",
"Npc": "",
"NpcInfo": "",
"ObjectDB": "",
"ObjectInfo": "",
"ObjectNpc": "",
"OptionButtonExt": "",
"OptionComponent": "",
"PanelButton": "",
"Particle": "",
"PathList": "",
"PatternLayout": "",
"Player": "",
"PlayerInfo": "",
"Powerup": "",
"PowerupInfo": "",
"PreviewImage": "",
"PreviewerList": "",
"PreviewerSingle": "",
"Projectile": "",
"ProjectileInfo": "",
"Property": "",
"PropertyInfo": "",
"PropertyPicker": "",
"ResizePanel": "",
"RewardInfo": "",
"ScoreSection": "",
"SizeProperty": "",
"SliderComponent": "",
"SpriteFramesExt": "",
"State": "",
"StateMachineCore": "",
"StatePhysic": "",
"StopWatch": "",
"TimeSection": "",
"UUID": "",
"Utility": "",
"Utils": "",
"Vector2Component": "",
"Version": ""
}

[application]

config/name="NetSMB"
config/description="It is a game engine of Mario fans, where you can create levels with all the freedom, and possibility to share it."
run/main_scene="res://src/UI/SplashScreen.tscn"
config/icon="res://icon.png"

[autoload]

A="*res://src/Autoloads/autoload.gd"
Audio="*res://src/Autoloads/Audio.tscn"
Alert="*res://src/Autoloads/Alerts.tscn"
Event="*res://src/Autoloads/event_manager.gd"
Factory="*res://src/Autoloads/factory_object.gd"
GlobalData="*res://src/Autoloads/global_data.gd"
HUD="*res://src/Autoloads/hud.gd"
Logger="*res://addons/gs_logger/logger.gd"
ParticleEmitter="*res://src/Autoloads/particle_emitter.gd"
Resources="*res://src/Autoloads/resources.gd"
ThemeUI="*res://src/Autoloads/theme_ui.gd"
Transition="*res://src/Autoloads/TransitionManager.tscn"

[debug]

gdscript/completion/autocomplete_setters_and_getters=true
gdscript/warnings/return_value_discarded=false
gdscript/warnings/integer_division=false

[editor_plugins]

enabled=PoolStringArray( "res://addons/FileSystemView/plugin.cfg", "res://addons/explore-editor-theme/plugin.cfg", "res://addons/godot-sqlite/plugin.cfg", "res://addons/gs_logger/plugin.cfg", "res://addons/gut/plugin.cfg" )

[importer_defaults]

ogg_vorbis={
"loop": false,
"loop_offset": 0
}

[input]

action_resize_level={
"deadzone": 0.5,
"events": [ Object(InputEventKey,"resource_local_to_scene":false,"resource_name":"","device":0,"alt":false,"shift":false,"control":true,"meta":false,"command":true,"pressed":false,"scancode":82,"physical_scancode":0,"unicode":0,"echo":false,"script":null)
 ]
}
action_jump={
"deadzone": 0.5,
"events": [ Object(InputEventKey,"resource_local_to_scene":false,"resource_name":"","device":0,"alt":false,"shift":false,"control":false,"meta":false,"command":false,"pressed":false,"scancode":90,"physical_scancode":0,"unicode":0,"echo":false,"script":null)
 ]
}
action_run={
"deadzone": 0.5,
"events": [ Object(InputEventKey,"resource_local_to_scene":false,"resource_name":"","device":0,"alt":false,"shift":false,"control":false,"meta":false,"command":false,"pressed":false,"scancode":88,"physical_scancode":0,"unicode":0,"echo":false,"script":null)
 ]
}
action_altjump={
"deadzone": 0.5,
"events": [ Object(InputEventKey,"resource_local_to_scene":false,"resource_name":"","device":0,"alt":false,"shift":false,"control":false,"meta":false,"command":false,"pressed":false,"scancode":65,"physical_scancode":0,"unicode":0,"echo":false,"script":null)
 ]
}
action_left={
"deadzone": 0.5,
"events": [ Object(InputEventKey,"resource_local_to_scene":false,"resource_name":"","device":0,"alt":false,"shift":false,"control":false,"meta":false,"command":false,"pressed":false,"scancode":16777231,"physical_scancode":0,"unicode":0,"echo":false,"script":null)
 ]
}
action_right={
"deadzone": 0.5,
"events": [ Object(InputEventKey,"resource_local_to_scene":false,"resource_name":"","device":0,"alt":false,"shift":false,"control":false,"meta":false,"command":false,"pressed":false,"scancode":16777233,"physical_scancode":0,"unicode":0,"echo":false,"script":null)
, Object(InputEventJoypadButton,"resource_local_to_scene":false,"resource_name":"","device":0,"button_index":15,"pressure":0.0,"pressed":false,"script":null)
 ]
}
action_down={
"deadzone": 0.5,
"events": [ Object(InputEventKey,"resource_local_to_scene":false,"resource_name":"","device":0,"alt":false,"shift":false,"control":false,"meta":false,"command":false,"pressed":false,"scancode":16777234,"physical_scancode":0,"unicode":0,"echo":false,"script":null)
 ]
}
action_up={
"deadzone": 0.5,
"events": [ Object(InputEventKey,"resource_local_to_scene":false,"resource_name":"","device":0,"alt":false,"shift":false,"control":false,"meta":false,"command":false,"pressed":false,"scancode":16777232,"physical_scancode":0,"unicode":0,"echo":false,"script":null)
 ]
}
action_altrun={
"deadzone": 0.5,
"events": [ Object(InputEventKey,"resource_local_to_scene":false,"resource_name":"","device":0,"alt":false,"shift":false,"control":false,"meta":false,"command":false,"pressed":false,"scancode":83,"physical_scancode":0,"unicode":0,"echo":false,"script":null)
 ]
}
action_test={
"deadzone": 0.5,
"events": [ Object(InputEventKey,"resource_local_to_scene":false,"resource_name":"","device":0,"alt":false,"shift":false,"control":true,"meta":false,"command":true,"pressed":false,"scancode":65,"physical_scancode":0,"unicode":0,"echo":false,"script":null)
 ]
}
action_esc={
"deadzone": 0.5,
"events": [ Object(InputEventKey,"resource_local_to_scene":false,"resource_name":"","device":0,"alt":false,"shift":false,"control":false,"meta":false,"command":false,"pressed":false,"scancode":16777217,"physical_scancode":0,"unicode":0,"echo":false,"script":null)
, Object(InputEventKey,"resource_local_to_scene":false,"resource_name":"","device":0,"alt":false,"shift":false,"control":false,"meta":false,"command":false,"pressed":false,"scancode":16777220,"physical_scancode":0,"unicode":0,"echo":false,"script":null)
 ]
}
action_save={
"deadzone": 0.5,
"events": [ Object(InputEventKey,"resource_local_to_scene":false,"resource_name":"","device":0,"alt":false,"shift":false,"control":true,"meta":false,"command":true,"pressed":false,"scancode":83,"physical_scancode":0,"unicode":0,"echo":false,"script":null)
 ]
}
action_new={
"deadzone": 0.5,
"events": [ Object(InputEventKey,"resource_local_to_scene":false,"resource_name":"","device":0,"alt":false,"shift":false,"control":true,"meta":false,"command":true,"pressed":false,"scancode":78,"physical_scancode":0,"unicode":0,"echo":false,"script":null)
 ]
}
action_completion={
"deadzone": 0.5,
"events": [ Object(InputEventKey,"resource_local_to_scene":false,"resource_name":"","device":0,"alt":false,"shift":false,"control":true,"meta":false,"command":true,"pressed":false,"scancode":32,"physical_scancode":0,"unicode":0,"echo":false,"script":null)
 ]
}
action_open={
"deadzone": 0.5,
"events": [ Object(InputEventKey,"resource_local_to_scene":false,"resource_name":"","device":0,"alt":false,"shift":false,"control":true,"meta":false,"command":true,"pressed":false,"scancode":79,"physical_scancode":0,"unicode":0,"echo":false,"script":null)
 ]
}
action_save_as={
"deadzone": 0.5,
"events": [ Object(InputEventKey,"resource_local_to_scene":false,"resource_name":"","device":0,"alt":false,"shift":true,"control":true,"meta":false,"command":true,"pressed":false,"scancode":83,"physical_scancode":0,"unicode":0,"echo":false,"script":null)
 ]
}
button_left={
"deadzone": 0.5,
"events": [ Object(InputEventMouseButton,"resource_local_to_scene":false,"resource_name":"","device":0,"alt":false,"shift":false,"control":false,"meta":false,"command":false,"button_mask":0,"position":Vector2( 0, 0 ),"global_position":Vector2( 0, 0 ),"factor":1.0,"button_index":1,"pressed":false,"doubleclick":false,"script":null)
 ]
}
button_right={
"deadzone": 0.5,
"events": [ Object(InputEventMouseButton,"resource_local_to_scene":false,"resource_name":"","device":0,"alt":false,"shift":false,"control":false,"meta":false,"command":false,"button_mask":0,"position":Vector2( 0, 0 ),"global_position":Vector2( 0, 0 ),"factor":1.0,"button_index":2,"pressed":false,"doubleclick":false,"script":null)
 ]
}

[layer_names]

2d_render/layer_1="Player"
2d_render/layer_2="Enemy"
2d_render/layer_3="Powerup"
2d_render/layer_4="Block"
2d_render/layer_5="Object"
2d_render/layer_6="Projectil"
2d_render/layer_7="Activatable"
2d_render/layer_20="CollisionEdge"
2d_physics/layer_1="Player"
2d_physics/layer_2="Enemy"
2d_physics/layer_3="Powerup"
2d_physics/layer_4="Block"
2d_physics/layer_5="Object"
2d_physics/layer_6="Projectil"
2d_physics/layer_7="Activatable"
2d_physics/layer_20="CollisionEdge"

[locale]

translations=PoolStringArray( "res://assets/datas/translations/translation.es.translation", "res://assets/datas/translations/translation.en.translation" )

[logging]

file_logging/enable_file_logging=true
file_logging/log_path="user://logs/compiler.txt"
file_logging/max_log_files=1

[rendering]

quality/driver/driver_name="GLES2"
quality/intended_usage/framebuffer_allocation=0
quality/intended_usage/framebuffer_allocation.mobile=1
2d/snapping/use_gpu_pixel_snap=true
vram_compression/import_etc=true
vram_compression/import_etc2=false
environment/default_environment="res://default_env.tres"

[world]

2d/cell_size=32
