[gd_resource type="StyleBoxFlat" format=2]

[resource]
content_margin_left = 8.0
content_margin_right = 8.0
content_margin_top = 8.0
content_margin_bottom = 8.0
bg_color = Color( 0.231373, 0.227451, 0.254902, 0.901961 )
border_width_bottom = 3
border_color = Color( 0.0941176, 0.0941176, 0.0941176, 0.941176 )
border_blend = true
corner_radius_top_left = 50
corner_radius_top_right = 50
corner_radius_bottom_right = 50
corner_radius_bottom_left = 50
