[gd_resource type="DynamicFont" load_steps=2 format=2]

[ext_resource path="res://assets/fonts/sources/Monserrat/Montserrat-Medium.ttf" type="DynamicFontData" id=1]

[resource]
use_filter = true
font_data = ExtResource( 1 )
