[gd_resource type="DynamicFont" load_steps=2 format=2]

[ext_resource path="res://assets/fonts/sources/Roboto/Roboto-Regular.ttf" type="DynamicFontData" id=1]

[resource]
size = 14
font_data = ExtResource( 1 )
