[gd_resource type="StyleBoxFlat" format=2]

[resource]
content_margin_top = 4.0
content_margin_bottom = 4.0
bg_color = Color( 0.572549, 0.572549, 0.572549, 0.501961 )
corner_radius_top_left = 8
corner_radius_top_right = 8
corner_radius_bottom_right = 8
corner_radius_bottom_left = 8
