[gd_resource type="StyleBoxFlat" format=2]

[resource]
content_margin_left = 4.0
content_margin_right = 4.0
bg_color = Color( 0.627451, 0.627451, 0.627451, 1 )
corner_radius_top_left = 100
corner_radius_top_right = 100
corner_radius_bottom_right = 100
corner_radius_bottom_left = 100
