[gd_resource type="StyleBoxFlat" format=2]

[resource]
content_margin_left = 8.0
content_margin_right = 8.0
content_margin_top = 9.0
content_margin_bottom = 8.0
bg_color = Color( 0.309804, 0.301961, 0.321569, 0.901961 )
border_width_bottom = 2
border_color = Color( 0.0941176, 0.0941176, 0.0941176, 0.392157 )
