[gd_resource type="StyleBoxFlat" format=2]

[resource]
content_margin_left = 8.0
content_margin_right = 8.0
content_margin_top = 8.0
content_margin_bottom = 8.0
bg_color = Color( 0, 0, 0, 0 )
expand_margin_left = 31.0
expand_margin_right = 15.0
shadow_color = Color( 0.572549, 0.572549, 0.572549, 0.501961 )
shadow_size = 3
