[gd_resource type="StyleBoxFlat" format=2]

[resource]
bg_color = Color( 0.215686, 0.215686, 0.215686, 1 )
border_width_right = 39
border_color = Color( 0.333333, 0.333333, 0.333333, 1 )
corner_radius_top_left = 5
corner_radius_bottom_left = 5
