[gd_resource type="StyleBoxFlat" format=2]

[resource]
bg_color = Color( 0.172549, 0.164706, 0.196078, 0.627451 )
border_width_right = 39
border_color = Color( 0.333333, 0.333333, 0.333333, 1 )
corner_radius_top_left = 5
corner_radius_bottom_left = 5
