[gd_scene load_steps=2 format=2]

[ext_resource path="res://src/Blocks/block.gd" type="Script" id=1]

[node name="Block" type="StaticBody2D" groups=[
"block",
]]
collision_layer = 8
collision_mask = 23
script = ExtResource( 1 )
__meta__ = {
"_editor_description_": "Add the AnimatedSprite of DataInfo here"
}

[node name="Collision" type="CollisionShape2D" parent="."]

[node name="UpArea" type="Area2D" parent="."]
collision_layer = 8
collision_mask = 23

[node name="Collision" type="CollisionShape2D" parent="UpArea"]

[node name="DownArea" type="Area2D" parent="."]
collision_layer = 8
collision_mask = 23

[node name="Collision" type="CollisionShape2D" parent="DownArea"]

[node name="LeftArea" type="Area2D" parent="."]
collision_layer = 8
collision_mask = 23

[node name="Collision" type="CollisionShape2D" parent="LeftArea"]

[node name="RightArea" type="Area2D" parent="."]
collision_layer = 8
collision_mask = 23

[node name="Collision" type="CollisionShape2D" parent="RightArea"]
