[gd_scene load_steps=5 format=2]

[ext_resource path="res://assets/fonts/sources/Super Mario Bros/Super Mario Bros 3.ttf" type="DynamicFontData" id=1]
[ext_resource path="res://src/UI/HUD/life_section.gd" type="Script" id=3]

[sub_resource type="DynamicFont" id=1]
outline_size = 2
outline_color = Color( 0, 0, 0, 1 )
font_data = ExtResource( 1 )

[sub_resource type="DynamicFont" id=2]
size = 22
outline_size = 2
outline_color = Color( 0, 0, 0, 1 )
extra_spacing_top = -4
extra_spacing_char = 3
font_data = ExtResource( 1 )

[node name="LifeSection" type="HBoxContainer"]
margin_right = 120.0
margin_bottom = 34.0
rect_min_size = Vector2( 0, 34 )
custom_constants/separation = 5
script = ExtResource( 3 )
__meta__ = {
"_edit_lock_": true,
"_edit_use_anchors_": false
}

[node name="Control" type="Control" parent="."]
margin_bottom = 34.0
__meta__ = {
"_edit_lock_": true
}

[node name="Image" type="AnimatedSprite" parent="Control"]
centered = false
__meta__ = {
"_edit_lock_": true
}

[node name="Text" type="Label" parent="."]
margin_left = 5.0
margin_top = 8.0
margin_right = 20.0
margin_bottom = 26.0
custom_fonts/font = SubResource( 1 )
text = "x"
__meta__ = {
"_edit_lock_": true,
"_edit_use_anchors_": false
}

[node name="Value" type="Label" parent="."]
margin_left = 25.0
margin_top = 6.0
margin_right = 70.0
margin_bottom = 27.0
custom_fonts/font = SubResource( 2 )
text = "00"
__meta__ = {
"_edit_lock_": true
}
