[gd_resource type="Theme" load_steps=9 format=2]

[ext_resource path="res://assets/fonts/sources/Roboto/Roboto-Regular.ttf" type="DynamicFontData" id=1]

[sub_resource type="StyleBoxFlat" id=1]
bg_color = Color( 0.180392, 0.180392, 0.180392, 0.498039 )
border_width_left = 1
border_width_top = 1
border_width_right = 1
border_width_bottom = 1
border_color = Color( 0.392157, 0.392157, 0.392157, 0.498039 )
corner_radius_top_left = 4
corner_radius_top_right = 4
corner_radius_bottom_right = 4
corner_radius_bottom_left = 4

[sub_resource type="StyleBoxFlat" id=2]
bg_color = Color( 0.368627, 0.368627, 0.368627, 0.498039 )
border_width_left = 1
border_width_top = 1
border_width_right = 1
border_width_bottom = 1
border_color = Color( 0.72549, 0.72549, 0.72549, 0.498039 )
corner_radius_top_left = 4
corner_radius_top_right = 4
corner_radius_bottom_right = 4
corner_radius_bottom_left = 4

[sub_resource type="StyleBoxFlat" id=3]
bg_color = Color( 0.180392, 0.180392, 0.180392, 0.498039 )
border_width_left = 1
border_width_top = 1
border_width_right = 1
border_width_bottom = 1
border_color = Color( 0.72549, 0.72549, 0.72549, 0.498039 )
corner_radius_top_left = 4
corner_radius_top_right = 4
corner_radius_bottom_right = 4
corner_radius_bottom_left = 4

[sub_resource type="StyleBoxFlat" id=4]
bg_color = Color( 0.156863, 0.156863, 0.156863, 0.498039 )
border_width_left = 1
border_width_top = 1
border_width_right = 1
border_width_bottom = 1
border_color = Color( 0.72549, 0.72549, 0.72549, 0.498039 )
corner_radius_top_left = 4
corner_radius_top_right = 4
corner_radius_bottom_right = 4
corner_radius_bottom_left = 4

[sub_resource type="StyleBoxFlat" id=5]
content_margin_left = 34.0
bg_color = Color( 0.258824, 0.258824, 0.258824, 0.843137 )

[sub_resource type="ImageTexture" id=6]

[sub_resource type="DynamicFont" id=7]
use_mipmaps = true
use_filter = true
font_data = ExtResource( 1 )

[resource]
default_font = SubResource( 7 )
Button/colors/font_color = Color( 0.88, 0.88, 0.88, 1 )
Button/colors/font_color_disabled = Color( 0.9, 0.9, 0.9, 0.2 )
Button/colors/font_color_hover = Color( 0.94, 0.94, 0.94, 1 )
Button/colors/font_color_pressed = Color( 1, 1, 1, 1 )
Button/constants/hseparation = 2
Button/fonts/font = null
Button/styles/disabled = null
Button/styles/focus = SubResource( 1 )
Button/styles/hover = SubResource( 2 )
Button/styles/normal = SubResource( 3 )
Button/styles/pressed = SubResource( 4 )
Label/colors/font_color = Color( 1, 1, 1, 1 )
Label/colors/font_color_shadow = Color( 0, 0, 0, 0 )
Label/colors/font_outline_modulate = Color( 1, 1, 1, 1 )
Label/constants/line_spacing = 3
Label/constants/shadow_as_outline = 0
Label/constants/shadow_offset_x = 1
Label/constants/shadow_offset_y = 1
Label/fonts/font = null
Label/styles/normal = SubResource( 5 )
OptionButton/colors/font_color = Color( 0.88, 0.88, 0.88, 1 )
OptionButton/colors/font_color_disabled = Color( 0.9, 0.9, 0.9, 0.2 )
OptionButton/colors/font_color_hover = Color( 0.94, 0.94, 0.94, 1 )
OptionButton/colors/font_color_pressed = Color( 1, 1, 1, 1 )
OptionButton/constants/arrow_margin = 2
OptionButton/constants/hseparation = 2
OptionButton/fonts/font = null
OptionButton/icons/arrow = null
OptionButton/styles/disabled = null
OptionButton/styles/focus = null
OptionButton/styles/hover = null
OptionButton/styles/normal = null
OptionButton/styles/pressed = null
SpinBox/icons/updown = SubResource( 6 )
