[gd_resource type="StyleBoxFlat" format=2]

[resource]
content_margin_left = 8.0
content_margin_right = 8.0
content_margin_top = 8.0
content_margin_bottom = 8.0
bg_color = Color( 0.6, 0.6, 0.6, 0.235294 )
