[gd_scene load_steps=3 format=2]

[ext_resource path="res://src/Autoloads/alerts.gd" type="Script" id=1]
[ext_resource path="res://src/UI/Editor/Utils/Components/FieldComponent.tscn" type="PackedScene" id=2]

[node name="Alerts" type="CanvasLayer"]
layer = 30
script = ExtResource( 1 )

[node name="Dialog" type="AcceptDialog" parent="."]
anchor_left = 0.5
anchor_top = 0.5
anchor_right = 0.5
anchor_bottom = 0.5
margin_left = -512.0
margin_top = -300.0
margin_right = -429.0
margin_bottom = -242.0
popup_exclusive = true
__meta__ = {
"_edit_use_anchors_": false
}

[node name="ConfirmDialog" type="ConfirmationDialog" parent="."]
margin_right = 200.0
margin_bottom = 70.0
rect_min_size = Vector2( 150, 52.5 )
popup_exclusive = true

[node name="InputDialog" type="AcceptDialog" parent="."]
margin_right = 348.0
margin_bottom = 89.0
popup_exclusive = true
window_title = "Input dialog"
__meta__ = {
"_edit_use_anchors_": false
}

[node name="Value" parent="InputDialog" instance=ExtResource( 2 )]
margin_left = 8.0
margin_top = 8.0
margin_right = 340.0
margin_bottom = 53.0
visible_text = false
visible_prefix_x = false

[connection signal="text_input_x_changed" from="InputDialog/Value" to="." method="_on_input_value_text_changed"]
