[gd_scene load_steps=2 format=2]

[ext_resource path="res://src/Autoloads/transition_manager.gd" type="Script" id=1]

[node name="TransitionManager" type="CanvasLayer"]
layer = 128
script = ExtResource( 1 )

[node name="Background" type="Panel" parent="."]
modulate = Color( 1, 1, 1, 0 )
anchor_right = 1.0
anchor_bottom = 1.0
mouse_filter = 2

[node name="Animation" type="Tween" parent="."]
