[gd_resource type="StyleBoxFlat" format=2]

[resource]
content_margin_left = 10.0
content_margin_right = 10.0
content_margin_top = 10.0
content_margin_bottom = 10.0
bg_color = Color( 0.262745, 0.262745, 0.262745, 1 )
border_width_left = 4
border_width_top = 4
border_width_right = 4
border_width_bottom = 4
border_color = Color( 0.156863, 0.156863, 0.156863, 0.784314 )
border_blend = true
