[gd_resource type="StyleBoxFlat" format=2]

[resource]
content_margin_left = 20.0
content_margin_right = 20.0
content_margin_top = 10.0
content_margin_bottom = 10.0
bg_color = Color( 0.172549, 0.164706, 0.196078, 1 )
border_width_left = 2
border_width_top = 25
border_width_right = 2
border_width_bottom = 2
border_color = Color( 0.0941176, 0.0941176, 0.0941176, 0.941176 )
corner_radius_top_left = 10
corner_radius_top_right = 10
corner_radius_bottom_right = 10
corner_radius_bottom_left = 10
expand_margin_top = 22.0
